sim/risc_v_tb.vcd
$date
	Sun Mar 16 19:01:26 2025
$end
$version
	Icarus Verilog
$end
$timescale
	1ps
$end
$scope module risc_v_tb $end
$var wire 32 ! CPUOut [31:0] $end
$var reg 1 " CLK $end
$var reg 32 # CPUIn [31:0] $end
$var reg 1 $ Reset $end
$scope module dut $end
$var wire 1 " CLK $end
$var wire 32 % CPUIn [31:0] $end
$var wire 1 $ Reset $end
$var wire 32 & SrcA [31:0] $end
$var wire 1 ' Zero $end
$var wire 32 ( WD3 [31:0] $end
$var wire 32 ) SrcB [31:0] $end
$var wire 2 * ResultSrc [1:0] $end
$var wire 1 + RegWrite $end
$var wire 32 , RD2 [31:0] $end
$var wire 32 - RD1 [31:0] $end
$var wire 32 . RD [31:0] $end
$var wire 32 / PCTarget [31:0] $end
$var wire 2 0 PCSrc [1:0] $end
$var wire 32 1 PCPlus4 [31:0] $end
$var wire 32 2 PC [31:0] $end
$var wire 1 3 Negative $end
$var wire 1 4 MemWrite $end
$var wire 32 5 Instr [31:0] $end
$var wire 3 6 ImmSrc [2:0] $end
$var wire 32 7 ImmExt [31:0] $end
$var wire 32 8 CPUOut [31:0] $end
$var wire 1 9 ALUSrc $end
$var wire 32 : ALUResult [31:0] $end
$var wire 5 ; ALUControl [4:0] $end
$var wire 5 < A3 [4:0] $end
$var wire 5 = A2 [4:0] $end
$var wire 5 > A1 [4:0] $end
$scope module alu_inst $end
$var wire 32 ? SrcA [31:0] $end
$var wire 32 @ SrcB [31:0] $end
$var wire 5 A shift_amount [4:0] $end
$var wire 20 B lui_immediate [19:0] $end
$var wire 1 ' Zero $end
$var wire 1 3 Negative $end
$var wire 5 C ALUControl [4:0] $end
$var reg 32 D ALUResult [31:0] $end
$upscope $end
$scope module cu_inst $end
$var wire 1 3 Negative $end
$var wire 1 ' Zero $end
$var wire 7 E opcode [6:0] $end
$var wire 1 F funct7_bit $end
$var wire 3 G funct3 [2:0] $end
$var wire 32 H Instr [31:0] $end
$var reg 5 I ALUControl [4:0] $end
$var reg 1 9 ALUSrc $end
$var reg 3 J ImmSrc [2:0] $end
$var reg 1 4 MemWrite $end
$var reg 2 K PCSrc [1:0] $end
$var reg 1 + RegWrite $end
$var reg 2 L ResultSrc [1:0] $end
$upscope $end
$scope module dmem_inst $end
$var wire 32 M A [31:0] $end
$var wire 1 " CLK $end
$var wire 32 N CPUIn [31:0] $end
$var wire 1 4 WE $end
$var wire 32 O WD [31:0] $end
$var wire 1 P RDsel $end
$var wire 32 Q RD [31:0] $end
$var reg 32 R CPUOut [31:0] $end
$var reg 1 S WEM $end
$var reg 1 T WEOut $end
$upscope $end
$scope module ext_inst $end
$var wire 3 U ImmSrc [2:0] $end
$var wire 1 V sign_bit $end
$var wire 32 W Instr [31:0] $end
$var wire 32 X ImmExt [31:0] $end
$upscope $end
$scope module imem_inst $end
$var wire 32 Y Instr [31:0] $end
$var wire 32 Z PC_divided_by_4 [31:0] $end
$var wire 32 [ PC [31:0] $end
$upscope $end
$scope module pc_inst $end
$var wire 32 \ ALUResult [31:0] $end
$var wire 1 " CLK $end
$var wire 32 ] PC [31:0] $end
$var wire 2 ^ PCSrc [1:0] $end
$var wire 32 _ PCTarget [31:0] $end
$var wire 1 $ Reset $end
$var wire 32 ` PCPlus4 [31:0] $end
$var reg 32 a pc_reg [31:0] $end
$upscope $end
$scope module rf_inst $end
$var wire 5 b A1 [4:0] $end
$var wire 5 c A2 [4:0] $end
$var wire 5 d A3 [4:0] $end
$var wire 1 " CLK $end
$var wire 32 e WD3 [31:0] $end
$var wire 1 + WE3 $end
$var wire 32 f RD2 [31:0] $end
$var wire 32 g RD1 [31:0] $end
$upscope $end
$upscope $end
$upscope $end
$enddefinitions $end
#0
$dumpvars
bx g
bx f
bx e
bx d
bx c
bx b
bx a
bx `
bx _
b0 ^
bx ]
bx \
bx [
bx Z
bx Y
bx X
bx W
xV
b0 U
0T
0S
bx R
bx Q
xP
bx O
b1111011 N
bx M
b0 L
b0 K
b0 J
b10 I
bx H
bx G
xF
bx E
bx D
b10 C
bx B
bx A
bx @
bx ?
bx >
bx =
bx <
b10 ;
bx :
09
bx 8
bx 7
b0 6
bx 5
04
x3
bx 2
bx 1
b0 0
bx /
bx .
bx -
bx ,
0+
b0 *
bx )
bx (
x'
bx &
b1111011 %
1$
b1111011 #
0"
bx !
$end
#10000
03
0P
1'
b0 A
b0 B
b10000000000000000000000000000000 (
b10000000000000000000000000000000 e
b0 )
b0 @
b0 :
b0 D
b0 M
b0 \
b10000000000000000000000000000000 /
b10000000000000000000000000000000 _
b10000000000000000000000000000000 7
b10000000000000000000000000000000 X
b11111 ;
b11111 C
b11111 I
b11 *
b11 L
b11 6
b11 J
b11 U
1+
b0 ,
b0 O
b0 f
b0 &
b0 ?
b0 -
b0 g
1V
0F
b0 G
b110111 E
b1010 <
b1010 d
b0 =
b0 c
b0 >
b0 b
b100 1
b100 `
b10000000000000000000010100110111 5
b10000000000000000000010100110111 H
b10000000000000000000010100110111 W
b10000000000000000000010100110111 Y
b0 Z
b0 2
b0 [
b0 ]
b0 a
1"
#20000
0"
#30000
1"
#40000
0"
0$
#50000
b1111011 .
b1111011 Q
1P
b11100 A
b11111111111111111100 B
b1111011 (
b1111011 e
03
b11111111111111111111111111111100 7
b11111111111111111111111111111100 X
b11111111111111111111111111111100 )
b11111111111111111111111111111100 @
0'
b1111111111111111111111111111100 :
b1111111111111111111111111111100 D
b1111111111111111111111111111100 M
b1111111111111111111111111111100 \
19
b0 6
b0 J
b0 U
b10 ;
b10 C
b10 I
1+
b1 *
b1 L
bx ,
bx O
bx f
b10000000000000000000000000000000 &
b10000000000000000000000000000000 ?
b10000000000000000000000000000000 -
b10000000000000000000000000000000 g
1F
b10 G
b11 E
b10 <
b10 d
b11100 =
b11100 c
b1010 >
b1010 b
b1000 1
b1000 `
b11111111110001010010000100000011 5
b11111111110001010010000100000011 H
b11111111110001010010000100000011 W
b11111111110001010010000100000011 Y
b1 Z
b0 /
b0 _
b100 2
b100 [
b100 ]
b100 a
1"
#60000
0"
#70000
bx .
bx Q
0P
b11111 A
b11111111 B
b11111111 )
b11111111 @
b1111011 (
b1111011 e
b1111011 :
b1111011 D
b1111011 M
b1111011 \
b11111111 7
b11111111 X
b11 ;
b11 C
b11 I
1+
19
b0 *
b0 L
b1111011 &
b1111011 ?
b1111011 -
b1111011 g
0V
0F
b111 G
b10011 E
b11111 =
b11111 c
b10 >
b10 b
b1100 1
b1100 `
b1111111100010111000100010011 5
b1111111100010111000100010011 H
b1111111100010111000100010011 W
b1111111100010111000100010011 Y
b10 Z
b100000111 /
b100000111 _
b1000 2
b1000 [
b1000 ]
b1000 a
1"
#80000
0"
#90000
1'
b0 A
b0 B
b0 (
b0 e
b0 )
b0 @
b0 :
b0 D
b0 M
b0 \
b0 7
b0 X
b10 ;
b10 C
b10 I
1+
19
b0 ,
b0 O
b0 f
b0 &
b0 ?
b0 -
b0 g
b0 G
b101 <
b101 d
b0 =
b0 c
b0 >
b0 b
b10000 1
b10000 `
b1010010011 5
b1010010011 H
b1010010011 W
b1010010011 Y
b11 Z
b1100 /
b1100 _
b1100 2
b1100 [
b1100 ]
b1100 a
1"
#100000
0"
#110000
b110 <
b110 d
b10100 1
b10100 `
b1100010011 5
b1100010011 H
b1100010011 W
b1100010011 Y
b100 Z
b10000 /
b10000 _
b10000 2
b10000 [
b10000 ]
b10000 a
1"
#120000
0"
#130000
b1 (
b1 e
0'
b1 :
b1 D
b1 M
b1 \
b1 A
b1 B
b1 )
b1 @
b1 7
b1 X
b11 ;
b11 C
b11 I
1+
19
bx ,
bx O
bx f
b1111011 &
b1111011 ?
b1111011 -
b1111011 g
b111 G
b11100 <
b11100 d
b1 =
b1 c
b10 >
b10 b
b11000 1
b11000 `
b100010111111000010011 5
b100010111111000010011 H
b100010111111000010011 W
b100010111111000010011 Y
b101 Z
b10101 /
b10101 _
b10100 2
b10100 [
b10100 ]
b10100 a
1"
#140000
0"
#150000
b0 A
b0 B
b0 0
b0 K
b0 ^
b1 (
b1 e
b0 )
b0 @
0'
b1 :
b1 D
b1 M
b1 \
b1000 7
b1000 X
b10 6
b10 J
b10 U
b1 ;
b1 C
b1 I
0+
09
b0 ,
b0 O
b0 f
b1 &
b1 ?
b1 -
b1 g
b0 G
b1100011 E
b1000 <
b1000 d
b0 =
b0 c
b11100 >
b11100 b
b11100 1
b11100 `
b11100000010001100011 5
b11100000010001100011 H
b11100000010001100011 W
b11100000010001100011 Y
b110 Z
b100000 /
b100000 _
b11000 2
b11000 [
b11000 ]
b11000 a
1"
#160000
0"
#170000
b1 A
b1 B
b1 (
b1 e
b1 7
b1 X
b1 )
b1 @
0'
b1 :
b1 D
b1 M
b1 \
19
1+
b0 6
b0 J
b0 U
b10 ;
b10 C
b10 I
bx ,
bx O
bx f
b0 &
b0 ?
b0 -
b0 g
b10011 E
b101 <
b101 d
b1 =
b1 c
b101 >
b101 b
b100000 1
b100000 `
b100101000001010010011 5
b100101000001010010011 H
b100101000001010010011 W
b100101000001010010011 Y
b111 Z
b11101 /
b11101 _
b11100 2
b11100 [
b11100 ]
b11100 a
1"
#180000
0"
#190000
b111101 (
b111101 e
b111101 :
b111101 D
b111101 M
b111101 \
b10000 ;
b10000 C
b10000 I
1+
19
b1111011 &
b1111011 ?
b1111011 -
b1111011 g
b101 G
b10 <
b10 d
b10 >
b10 b
b100100 1
b100100 `
b100010101000100010011 5
b100010101000100010011 H
b100010101000100010011 W
b100010101000100010011 Y
b1000 Z
b100001 /
b100001 _
b100000 2
b100000 [
b100000 ]
b100000 a
1"
#200000
0"
#210000
b1 (
b1 e
b10 ;
b10 C
b10 I
1+
19
b1 :
b1 D
b1 M
b1 \
b0 G
b110 <
b110 d
b110 >
b110 b
b0 &
b0 ?
b0 -
b0 g
b101000 1
b101000 `
b100110000001100010011 5
b100110000001100010011 H
b100110000001100010011 W
b100110000001100010011 Y
b1001 Z
b100101 /
b100101 _
b100100 2
b100100 [
b100100 ]
b100100 a
1"
#220000
0"
#230000
b1000 (
b1000 e
1+
19
b1000 :
b1000 D
b1000 M
b1000 \
b1000 A
b1000 B
b1000 )
b1000 @
b1000 7
b1000 X
b11100 <
b11100 d
b1000 =
b1000 c
b0 >
b0 b
b101100 1
b101100 `
b100000000000111000010011 5
b100000000000111000010011 H
b100000000000111000010011 W
b100000000000111000010011 Y
b1010 Z
b110000 /
b110000 _
b101000 2
b101000 [
b101000 ]
b101000 a
1"
#240000
0"
#250000
13
b11111111111111111111111111111001 (
b11111111111111111111111111111001 e
b11111111111111111111111111111001 :
b11111111111111111111111111111001 D
b11111111111111111111111111111001 M
b11111111111111111111111111111001 \
b11111111111111111111111111101000 7
b11111111111111111111111111101000 X
b1 0
b1 K
b1 ^
b1 ;
b1 C
b1 I
b10 6
b10 J
b10 U
0+
09
b1000 ,
b1000 O
b1000 f
b1 &
b1 ?
b1 -
b1 g
1V
1F
b1 G
b1100011 E
b1001 <
b1001 d
b11100 =
b11100 c
b110 >
b110 b
b110000 1
b110000 `
b11111111110000110001010011100011 5
b11111111110000110001010011100011 H
b11111111110000110001010011100011 W
b11111111110000110001010011100011 Y
b1011 Z
b10100 /
b10100 _
b101100 2
b101100 [
b101100 ]
b101100 a
1"
#260000
0"
#270000
b1 A
b1 B
03
b1 (
b1 e
b1 7
b1 X
b1 )
b1 @
b1 :
b1 D
b1 M
b1 \
19
1+
b0 6
b0 J
b0 U
b11 ;
b11 C
b11 I
b0 0
b0 K
b0 ^
bx ,
bx O
bx f
b111101 &
b111101 ?
b111101 -
b111101 g
0V
0F
b111 G
b10011 E
b11100 <
b11100 d
b1 =
b1 c
b10 >
b10 b
b11000 1
b11000 `
b100010111111000010011 5
b100010111111000010011 H
b100010111111000010011 W
b100010111111000010011 Y
b101 Z
b10101 /
b10101 _
b10100 2
b10100 [
b10100 ]
b10100 a
1"
#280000
0"
#290000
b0 A
b0 B
b0 0
b0 K
b0 ^
b1 (
b1 e
b0 )
b0 @
0'
b1 :
b1 D
b1 M
b1 \
b1000 7
b1000 X
b10 6
b10 J
b10 U
b1 ;
b1 C
b1 I
0+
09
b0 ,
b0 O
b0 f
b1 &
b1 ?
b1 -
b1 g
b0 G
b1100011 E
b1000 <
b1000 d
b0 =
b0 c
b11100 >
b11100 b
b11100 1
b11100 `
b11100000010001100011 5
b11100000010001100011 H
b11100000010001100011 W
b11100000010001100011 Y
b110 Z
b100000 /
b100000 _
b11000 2
b11000 [
b11000 ]
b11000 a
1"
#300000
0"
#310000
b10 (
b10 e
b1 A
b1 B
b1 7
b1 X
b10 :
b10 D
b10 M
b10 \
b1 )
b1 @
19
1+
b0 6
b0 J
b0 U
b10 ;
b10 C
b10 I
bx ,
bx O
bx f
b10011 E
b101 <
b101 d
b1 =
b1 c
b101 >
b101 b
b100000 1
b100000 `
b100101000001010010011 5
b100101000001010010011 H
b100101000001010010011 W
b100101000001010010011 Y
b111 Z
b11101 /
b11101 _
b11100 2
b11100 [
b11100 ]
b11100 a
1"
#320000
0"
#330000
b11110 (
b11110 e
b10000 ;
b10000 C
b10000 I
1+
19
b11110 :
b11110 D
b11110 M
b11110 \
b101 G
b10 <
b10 d
b10 >
b10 b
b111101 &
b111101 ?
b111101 -
b111101 g
b100100 1
b100100 `
b100010101000100010011 5
b100010101000100010011 H
b100010101000100010011 W
b100010101000100010011 Y
b1000 Z
b100001 /
b100001 _
b100000 2
b100000 [
b100000 ]
b100000 a
1"
#340000
0"
#350000
b10 (
b10 e
b10 :
b10 D
b10 M
b10 \
b10 ;
b10 C
b10 I
1+
19
b1 &
b1 ?
b1 -
b1 g
b0 G
b110 <
b110 d
b110 >
b110 b
b101000 1
b101000 `
b100110000001100010011 5
b100110000001100010011 H
b100110000001100010011 W
b100110000001100010011 Y
b1001 Z
b100101 /
b100101 _
b100100 2
b100100 [
b100100 ]
b100100 a
1"
#360000
0"
#370000
b1000 A
b1000 B
b1000 )
b1000 @
b1000 (
b1000 e
b1000 7
b1000 X
1+
19
b1000 :
b1000 D
b1000 M
b1000 \
b11100 <
b11100 d
b1000 =
b1000 c
b0 >
b0 b
b0 &
b0 ?
b0 -
b0 g
b101100 1
b101100 `
b100000000000111000010011 5
b100000000000111000010011 H
b100000000000111000010011 W
b100000000000111000010011 Y
b1010 Z
b110000 /
b110000 _
b101000 2
b101000 [
b101000 ]
b101000 a
1"
#380000
0"
#390000
13
b11111111111111111111111111111010 (
b11111111111111111111111111111010 e
b11111111111111111111111111111010 :
b11111111111111111111111111111010 D
b11111111111111111111111111111010 M
b11111111111111111111111111111010 \
b11111111111111111111111111101000 7
b11111111111111111111111111101000 X
b1 0
b1 K
b1 ^
b1 ;
b1 C
b1 I
b10 6
b10 J
b10 U
0+
09
b1000 ,
b1000 O
b1000 f
b10 &
b10 ?
b10 -
b10 g
1V
1F
b1 G
b1100011 E
b1001 <
b1001 d
b11100 =
b11100 c
b110 >
b110 b
b110000 1
b110000 `
b11111111110000110001010011100011 5
b11111111110000110001010011100011 H
b11111111110000110001010011100011 W
b11111111110000110001010011100011 Y
b1011 Z
b10100 /
b10100 _
b101100 2
b101100 [
b101100 ]
b101100 a
1"
#400000
0"
#410000
1'
b1 A
b1 B
03
b0 (
b0 e
b1 7
b1 X
b1 )
b1 @
b0 :
b0 D
b0 M
b0 \
19
1+
b0 6
b0 J
b0 U
b11 ;
b11 C
b11 I
b0 0
b0 K
b0 ^
bx ,
bx O
bx f
b11110 &
b11110 ?
b11110 -
b11110 g
0V
0F
b111 G
b10011 E
b11100 <
b11100 d
b1 =
b1 c
b10 >
b10 b
b11000 1
b11000 `
b100010111111000010011 5
b100010111111000010011 H
b100010111111000010011 W
b100010111111000010011 Y
b101 Z
b10101 /
b10101 _
b10100 2
b10100 [
b10100 ]
b10100 a
1"
#420000
0"
#430000
b0 A
b0 B
03
b0 (
b0 e
b0 )
b0 @
1'
b0 :
b0 D
b0 M
b0 \
b1000 7
b1000 X
b1 0
b1 K
b1 ^
b10 6
b10 J
b10 U
b1 ;
b1 C
b1 I
0+
09
b0 ,
b0 O
b0 f
b0 &
b0 ?
b0 -
b0 g
b0 G
b1100011 E
b1000 <
b1000 d
b0 =
b0 c
b11100 >
b11100 b
b11100 1
b11100 `
b11100000010001100011 5
b11100000010001100011 H
b11100000010001100011 W
b11100000010001100011 Y
b110 Z
b100000 /
b100000 _
b11000 2
b11000 [
b11000 ]
b11000 a
1"
#440000
0"
#450000
b1 A
b1 B
b1111 (
b1111 e
b1 7
b1 X
b1 )
b1 @
0'
b1111 :
b1111 D
b1111 M
b1111 \
19
1+
b0 6
b0 J
b0 U
b10000 ;
b10000 C
b10000 I
b0 0
b0 K
b0 ^
bx ,
bx O
bx f
b11110 &
b11110 ?
b11110 -
b11110 g
b101 G
b10011 E
b10 <
b10 d
b1 =
b1 c
b10 >
b10 b
b100100 1
b100100 `
b100010101000100010011 5
b100010101000100010011 H
b100010101000100010011 W
b100010101000100010011 Y
b1000 Z
b100001 /
b100001 _
b100000 2
b100000 [
b100000 ]
b100000 a
1"
#460000
0"
#470000
b11 (
b11 e
b11 :
b11 D
b11 M
b11 \
b10 ;
b10 C
b10 I
1+
19
b10 &
b10 ?
b10 -
b10 g
b0 G
b110 <
b110 d
b110 >
b110 b
b101000 1
b101000 `
b100110000001100010011 5
b100110000001100010011 H
b100110000001100010011 W
b100110000001100010011 Y
b1001 Z
b100101 /
b100101 _
b100100 2
b100100 [
b100100 ]
b100100 a
1"
#480000
0"
#490000
b1000 A
b1000 B
b1000 )
b1000 @
b1000 (
b1000 e
b1000 7
b1000 X
1+
19
b1000 :
b1000 D
b1000 M
b1000 \
b11100 <
b11100 d
b1000 =
b1000 c
b0 >
b0 b
b0 &
b0 ?
b0 -
b0 g
b101100 1
b101100 `
b100000000000111000010011 5
b100000000000111000010011 H
b100000000000111000010011 W
b100000000000111000010011 Y
b1010 Z
b110000 /
b110000 _
b101000 2
b101000 [
b101000 ]
b101000 a
1"
#500000
0"
#510000
13
b11111111111111111111111111111011 (
b11111111111111111111111111111011 e
b11111111111111111111111111111011 :
b11111111111111111111111111111011 D
b11111111111111111111111111111011 M
b11111111111111111111111111111011 \
b11111111111111111111111111101000 7
b11111111111111111111111111101000 X
b1 0
b1 K
b1 ^
b1 ;
b1 C
b1 I
b10 6
b10 J
b10 U
0+
09
b1000 ,
b1000 O
b1000 f
b11 &
b11 ?
b11 -
b11 g
1V
1F
b1 G
b1100011 E
b1001 <
b1001 d
b11100 =
b11100 c
b110 >
b110 b
b110000 1
b110000 `
b11111111110000110001010011100011 5
b11111111110000110001010011100011 H
b11111111110000110001010011100011 W
b11111111110000110001010011100011 Y
b1011 Z
b10100 /
b10100 _
b101100 2
b101100 [
b101100 ]
b101100 a
1"
#520000
0"
#530000
b1 A
b1 B
03
b1 (
b1 e
b1 7
b1 X
b1 )
b1 @
b1 :
b1 D
b1 M
b1 \
19
1+
b0 6
b0 J
b0 U
b11 ;
b11 C
b11 I
b0 0
b0 K
b0 ^
bx ,
bx O
bx f
b1111 &
b1111 ?
b1111 -
b1111 g
0V
0F
b111 G
b10011 E
b11100 <
b11100 d
b1 =
b1 c
b10 >
b10 b
b11000 1
b11000 `
b100010111111000010011 5
b100010111111000010011 H
b100010111111000010011 W
b100010111111000010011 Y
b101 Z
b10101 /
b10101 _
b10100 2
b10100 [
b10100 ]
b10100 a
1"
#540000
0"
#550000
b0 A
b0 B
b0 0
b0 K
b0 ^
b1 (
b1 e
b0 )
b0 @
0'
b1 :
b1 D
b1 M
b1 \
b1000 7
b1000 X
b10 6
b10 J
b10 U
b1 ;
b1 C
b1 I
0+
09
b0 ,
b0 O
b0 f
b1 &
b1 ?
b1 -
b1 g
b0 G
b1100011 E
b1000 <
b1000 d
b0 =
b0 c
b11100 >
b11100 b
b11100 1
b11100 `
b11100000010001100011 5
b11100000010001100011 H
b11100000010001100011 W
b11100000010001100011 Y
b110 Z
b100000 /
b100000 _
b11000 2
b11000 [
b11000 ]
b11000 a
1"
#560000
0"
#570000
b1 A
b1 B
b11 (
b11 e
b1 7
b1 X
b1 )
b1 @
b11 :
b11 D
b11 M
b11 \
19
1+
b0 6
b0 J
b0 U
b10 ;
b10 C
b10 I
bx ,
bx O
bx f
b10 &
b10 ?
b10 -
b10 g
b10011 E
b101 <
b101 d
b1 =
b1 c
b101 >
b101 b
b100000 1
b100000 `
b100101000001010010011 5
b100101000001010010011 H
b100101000001010010011 W
b100101000001010010011 Y
b111 Z
b11101 /
b11101 _
b11100 2
b11100 [
b11100 ]
b11100 a
1"
#580000
0"
#590000
b111 (
b111 e
b111 :
b111 D
b111 M
b111 \
b10000 ;
b10000 C
b10000 I
1+
19
b1111 &
b1111 ?
b1111 -
b1111 g
b101 G
b10 <
b10 d
b10 >
b10 b
b100100 1
b100100 `
b100010101000100010011 5
b100010101000100010011 H
b100010101000100010011 W
b100010101000100010011 Y
b1000 Z
b100001 /
b100001 _
b100000 2
b100000 [
b100000 ]
b100000 a
1"
#600000
0"
#610000
b100 (
b100 e
b10 ;
b10 C
b10 I
1+
19
b100 :
b100 D
b100 M
b100 \
b0 G
b110 <
b110 d
b110 >
b110 b
b11 &
b11 ?
b11 -
b11 g
b101000 1
b101000 `
b100110000001100010011 5
b100110000001100010011 H
b100110000001100010011 W
b100110000001100010011 Y
b1001 Z
b100101 /
b100101 _
b100100 2
b100100 [
b100100 ]
b100100 a
1"
#620000
0"
#630000
b1000 A
b1000 B
b1000 (
b1000 e
b1000 )
b1000 @
1+
19
b1000 :
b1000 D
b1000 M
b1000 \
b1000 7
b1000 X
b0 &
b0 ?
b0 -
b0 g
b11100 <
b11100 d
b1000 =
b1000 c
b0 >
b0 b
b101100 1
b101100 `
b100000000000111000010011 5
b100000000000111000010011 H
b100000000000111000010011 W
b100000000000111000010011 Y
b1010 Z
b110000 /
b110000 _
b101000 2
b101000 [
b101000 ]
b101000 a
1"
#640000
0"
#650000
13
b11111111111111111111111111111100 (
b11111111111111111111111111111100 e
b11111111111111111111111111111100 :
b11111111111111111111111111111100 D
b11111111111111111111111111111100 M
b11111111111111111111111111111100 \
b11111111111111111111111111101000 7
b11111111111111111111111111101000 X
b1 0
b1 K
b1 ^
b1 ;
b1 C
b1 I
b10 6
b10 J
b10 U
0+
09
b1000 ,
b1000 O
b1000 f
b100 &
b100 ?
b100 -
b100 g
1V
1F
b1 G
b1100011 E
b1001 <
b1001 d
b11100 =
b11100 c
b110 >
b110 b
b110000 1
b110000 `
b11111111110000110001010011100011 5
b11111111110000110001010011100011 H
b11111111110000110001010011100011 W
b11111111110000110001010011100011 Y
b1011 Z
b10100 /
b10100 _
b101100 2
b101100 [
b101100 ]
b101100 a
1"
#660000
0"
#670000
b1 A
b1 B
03
b1 (
b1 e
b1 7
b1 X
b1 )
b1 @
0'
b1 :
b1 D
b1 M
b1 \
19
1+
b0 6
b0 J
b0 U
b11 ;
b11 C
b11 I
b0 0
b0 K
b0 ^
bx ,
bx O
bx f
b111 &
b111 ?
b111 -
b111 g
0V
0F
b111 G
b10011 E
b11100 <
b11100 d
b1 =
b1 c
b10 >
b10 b
b11000 1
b11000 `
b100010111111000010011 5
b100010111111000010011 H
b100010111111000010011 W
b100010111111000010011 Y
b101 Z
b10101 /
b10101 _
b10100 2
b10100 [
b10100 ]
b10100 a
1"
#680000
0"
#690000
b0 A
b0 B
b0 0
b0 K
b0 ^
b1 (
b1 e
b0 )
b0 @
0'
b1 :
b1 D
b1 M
b1 \
b1000 7
b1000 X
b10 6
b10 J
b10 U
b1 ;
b1 C
b1 I
0+
09
b0 ,
b0 O
b0 f
b1 &
b1 ?
b1 -
b1 g
b0 G
b1100011 E
b1000 <
b1000 d
b0 =
b0 c
b11100 >
b11100 b
b11100 1
b11100 `
b11100000010001100011 5
b11100000010001100011 H
b11100000010001100011 W
b11100000010001100011 Y
b110 Z
b100000 /
b100000 _
b11000 2
b11000 [
b11000 ]
b11000 a
1"
#700000
0"
#710000
b1 A
b1 B
b100 (
b100 e
b1 7
b1 X
b1 )
b1 @
b100 :
b100 D
b100 M
b100 \
19
1+
b0 6
b0 J
b0 U
b10 ;
b10 C
b10 I
bx ,
bx O
bx f
b11 &
b11 ?
b11 -
b11 g
b10011 E
b101 <
b101 d
b1 =
b1 c
b101 >
b101 b
b100000 1
b100000 `
b100101000001010010011 5
b100101000001010010011 H
b100101000001010010011 W
b100101000001010010011 Y
b111 Z
b11101 /
b11101 _
b11100 2
b11100 [
b11100 ]
b11100 a
1"
#720000
0"
#730000
b11 (
b11 e
b10000 ;
b10000 C
b10000 I
1+
19
b11 :
b11 D
b11 M
b11 \
b101 G
b10 <
b10 d
b10 >
b10 b
b111 &
b111 ?
b111 -
b111 g
b100100 1
b100100 `
b100010101000100010011 5
b100010101000100010011 H
b100010101000100010011 W
b100010101000100010011 Y
b1000 Z
b100001 /
b100001 _
b100000 2
b100000 [
b100000 ]
b100000 a
1"
#740000
0"
#750000
b101 (
b101 e
b101 :
b101 D
b101 M
b101 \
b10 ;
b10 C
b10 I
1+
19
b100 &
b100 ?
b100 -
b100 g
b0 G
b110 <
b110 d
b110 >
b110 b
b101000 1
b101000 `
b100110000001100010011 5
b100110000001100010011 H
b100110000001100010011 W
b100110000001100010011 Y
b1001 Z
b100101 /
b100101 _
b100100 2
b100100 [
b100100 ]
b100100 a
1"
#760000
0"
#770000
b1000 A
b1000 B
b1000 )
b1000 @
b1000 (
b1000 e
b1000 7
b1000 X
1+
19
b1000 :
b1000 D
b1000 M
b1000 \
b11100 <
b11100 d
b1000 =
b1000 c
b0 >
b0 b
b0 &
b0 ?
b0 -
b0 g
b101100 1
b101100 `
b100000000000111000010011 5
b100000000000111000010011 H
b100000000000111000010011 W
b100000000000111000010011 Y
b1010 Z
b110000 /
b110000 _
b101000 2
b101000 [
b101000 ]
b101000 a
1"
#780000
0"
#790000
13
b11111111111111111111111111111101 (
b11111111111111111111111111111101 e
b11111111111111111111111111111101 :
b11111111111111111111111111111101 D
b11111111111111111111111111111101 M
b11111111111111111111111111111101 \
b11111111111111111111111111101000 7
b11111111111111111111111111101000 X
b1 0
b1 K
b1 ^
b1 ;
b1 C
b1 I
b10 6
b10 J
b10 U
0+
09
b1000 ,
b1000 O
b1000 f
b101 &
b101 ?
b101 -
b101 g
1V
1F
b1 G
b1100011 E
b1001 <
b1001 d
b11100 =
b11100 c
b110 >
b110 b
b110000 1
b110000 `
b11111111110000110001010011100011 5
b11111111110000110001010011100011 H
b11111111110000110001010011100011 W
b11111111110000110001010011100011 Y
b1011 Z
b10100 /
b10100 _
b101100 2
b101100 [
b101100 ]
b101100 a
1"
#800000
0"
#810000
b1 A
b1 B
03
b1 (
b1 e
b1 7
b1 X
b1 )
b1 @
0'
b1 :
b1 D
b1 M
b1 \
19
1+
b0 6
b0 J
b0 U
b11 ;
b11 C
b11 I
b0 0
b0 K
b0 ^
bx ,
bx O
bx f
b11 &
b11 ?
b11 -
b11 g
0V
0F
b111 G
b10011 E
b11100 <
b11100 d
b1 =
b1 c
b10 >
b10 b
b11000 1
b11000 `
b100010111111000010011 5
b100010111111000010011 H
b100010111111000010011 W
b100010111111000010011 Y
b101 Z
b10101 /
b10101 _
b10100 2
b10100 [
b10100 ]
b10100 a
1"
#820000
0"
#830000
b0 A
b0 B
b0 0
b0 K
b0 ^
b1 (
b1 e
b0 )
b0 @
0'
b1 :
b1 D
b1 M
b1 \
b1000 7
b1000 X
b10 6
b10 J
b10 U
b1 ;
b1 C
b1 I
0+
09
b0 ,
b0 O
b0 f
b1 &
b1 ?
b1 -
b1 g
b0 G
b1100011 E
b1000 <
b1000 d
b0 =
b0 c
b11100 >
b11100 b
b11100 1
b11100 `
b11100000010001100011 5
b11100000010001100011 H
b11100000010001100011 W
b11100000010001100011 Y
b110 Z
b100000 /
b100000 _
b11000 2
b11000 [
b11000 ]
b11000 a
1"
#840000
0"
#850000
b1 A
b1 B
b101 (
b101 e
b1 7
b1 X
b1 )
b1 @
b101 :
b101 D
b101 M
b101 \
19
1+
b0 6
b0 J
b0 U
b10 ;
b10 C
b10 I
bx ,
bx O
bx f
b100 &
b100 ?
b100 -
b100 g
b10011 E
b101 <
b101 d
b1 =
b1 c
b101 >
b101 b
b100000 1
b100000 `
b100101000001010010011 5
b100101000001010010011 H
b100101000001010010011 W
b100101000001010010011 Y
b111 Z
b11101 /
b11101 _
b11100 2
b11100 [
b11100 ]
b11100 a
1"
#860000
0"
#870000
b1 (
b1 e
b1 :
b1 D
b1 M
b1 \
b10000 ;
b10000 C
b10000 I
1+
19
b11 &
b11 ?
b11 -
b11 g
b101 G
b10 <
b10 d
b10 >
b10 b
b100100 1
b100100 `
b100010101000100010011 5
b100010101000100010011 H
b100010101000100010011 W
b100010101000100010011 Y
b1000 Z
b100001 /
b100001 _
b100000 2
b100000 [
b100000 ]
b100000 a
1"
#880000
0"
#890000
b110 (
b110 e
b10 ;
b10 C
b10 I
1+
19
0'
b110 :
b110 D
b110 M
b110 \
b0 G
b110 <
b110 d
b110 >
b110 b
b101 &
b101 ?
b101 -
b101 g
b101000 1
b101000 `
b100110000001100010011 5
b100110000001100010011 H
b100110000001100010011 W
b100110000001100010011 Y
b1001 Z
b100101 /
b100101 _
b100100 2
b100100 [
b100100 ]
b100100 a
1"
#900000
0"
